<?xml version="1.0" encoding="utf-8"?>
<!-- Generator: Adobe Illustrator 26.4.1, SVG Export Plug-In . SVG Version: 6.00 Build 0)  -->
<svg version="1.1" id="Layer_1" xmlns="http://www.w3.org/2000/svg" xmlns:xlink="http://www.w3.org/1999/xlink" x="0px" y="0px"
	 viewBox="0 0 607 518" enable-background="new 0 0 607 518" xml:space="preserve">
<g>
	<g>
		<linearGradient id="SVGID_1_" gradientUnits="userSpaceOnUse" x1="186.4134" y1="385.7385" x2="125.4849" y2="492.6233">
			<stop  offset="0" style="stop-color:#B492FF;stop-opacity:0"/>
			<stop  offset="0" style="stop-color:#B492FF;stop-opacity:0.0143"/>
			<stop  offset="0" style="stop-color:#B492FF;stop-opacity:0.2"/>
			<stop  offset="0.6763" style="stop-color:#B492FF;stop-opacity:0.0265"/>
			<stop  offset="0.7796" style="stop-color:#B492FF;stop-opacity:0"/>
		</linearGradient>
		<path opacity="0.6" fill="url(#SVGID_1_)" d="M197.474,517.881l53.686-53.308l-108.65-104.67l-93.196,92.536
			c-18.806,19.41-34.932,41.427-47.797,65.442H197.474z"/>
		
			<linearGradient id="SVGID_00000178914237124760540650000008360309918237566900_" gradientUnits="userSpaceOnUse" x1="320.9938" y1="299.9358" x2="408.7986" y2="193.215">
			<stop  offset="0" style="stop-color:#B492FF;stop-opacity:0"/>
			<stop  offset="0" style="stop-color:#B492FF;stop-opacity:0.0143"/>
			<stop  offset="0" style="stop-color:#B492FF;stop-opacity:0.2"/>
			<stop  offset="0.5569" style="stop-color:#B492FF;stop-opacity:0.0265"/>
			<stop  offset="0.642" style="stop-color:#B492FF;stop-opacity:0"/>
		</linearGradient>
		<path opacity="0.6" fill="url(#SVGID_00000178914237124760540650000008360309918237566900_)" d="M319.033,184.63l-52.221,51.852
			L374.13,342.469l87.685-87.067c21.128-20.666,39.113-44.525,53.208-70.771H319.033z"/>
		
			<linearGradient id="SVGID_00000063591511454070490700000003111479117822452372_" gradientUnits="userSpaceOnUse" x1="134.8839" y1="225.9323" x2="375.8105" y2="470.2271">
			<stop  offset="0.0372" style="stop-color:#B492FF;stop-opacity:0"/>
			<stop  offset="0.0984" style="stop-color:#B492FF;stop-opacity:0.0265"/>
			<stop  offset="0.4985" style="stop-color:#B492FF;stop-opacity:0.2"/>
			<stop  offset="0.9118" style="stop-color:#B492FF;stop-opacity:0.0143"/>
			<stop  offset="0.9438" style="stop-color:#B492FF;stop-opacity:0"/>
		</linearGradient>
		<path opacity="0.6" fill="url(#SVGID_00000063591511454070490700000003111479117822452372_)" d="M461.892,446.924l-58.951-58.494
			L219.8,206.466l-22.003-21.835H1.655c12.971,24.154,29.244,46.281,48.224,65.762l61.854,61.366l182.853,181.64l24.68,24.483
			h195.898C501.065,491.564,483.057,467.641,461.892,446.924z"/>
	</g>
	<g>
		<rect x="466.934" y="208.776" fill="#6FD9C8" width="13.434" height="1.5"/>
		<rect x="440.065" y="208.776" fill="#6FD9C8" width="13.434" height="1.5"/>
		<rect x="413.197" y="208.776" fill="#6FD9C8" width="13.435" height="1.5"/>
		<rect x="386.329" y="208.776" fill="#6FD9C8" width="13.434" height="1.5"/>
		<rect x="359.46" y="208.776" fill="#6FD9C8" width="13.434" height="1.5"/>
		<rect x="316.951" y="208.776" fill="#6FD9C8" width="13.435" height="1.5"/>
		<rect x="115.183" y="208.776" fill="#FF9C73" width="48.465" height="1.5"/>
		<rect x="54.602" y="208.776" fill="#FF9C73" width="48.465" height="1.5"/>
		<rect x="218.618" y="249.167" fill="#5F4A9F" width="22.344" height="1.5"/>
		<rect x="185.103" y="249.167" fill="#5F4A9F" width="22.344" height="1.5"/>
		<rect x="151.586" y="249.167" fill="#5F4A9F" width="22.344" height="1.5"/>
		<rect x="118.071" y="249.167" fill="#5F4A9F" width="22.344" height="1.5"/>
		<rect x="84.555" y="249.167" fill="#5F4A9F" width="22.344" height="1.5"/>
		<rect x="51.039" y="249.167" fill="#5F4A9F" width="22.344" height="1.5"/>
		<g>
			<rect x="359.588" y="289.558" fill="#B492FF" width="67.108" height="1.5"/>
		</g>
		<g>
			<rect x="243.084" y="329.949" fill="#6FD9C8" width="35.887" height="1.5"/>
		</g>
		<g>
			<rect x="193.9" y="329.949" fill="#FF9C73" width="26.898" height="1.5"/>
		</g>
		<g>
			<rect x="163.285" y="329.949" fill="#E6E3F1" width="23.918" height="1.5"/>
		</g>
		<g>
			<rect x="228.803" y="329.949" fill="#E6E3F1" width="6.479" height="1.5"/>
		</g>
		<rect x="370.857" y="370.339" fill="#B492FF" width="6.778" height="1.5"/>
		<rect x="350.525" y="370.339" fill="#B492FF" width="6.777" height="1.5"/>
		<rect x="330.193" y="370.339" fill="#B492FF" width="6.777" height="1.5"/>
		<rect x="309.861" y="370.339" fill="#B492FF" width="6.777" height="1.5"/>
		<rect x="289.528" y="370.339" fill="#B492FF" width="6.777" height="1.5"/>
		<rect x="269.196" y="370.339" fill="#B492FF" width="6.777" height="1.5"/>
		<rect x="248.864" y="370.339" fill="#B492FF" width="6.777" height="1.5"/>
		<rect x="228.532" y="370.339" fill="#B492FF" width="6.777" height="1.5"/>
		<rect x="208.2" y="370.339" fill="#B492FF" width="6.777" height="1.5"/>
		<rect x="187.868" y="370.339" fill="#B492FF" width="6.777" height="1.5"/>
		<rect x="161.78" y="410.73" fill="#6FD9C8" width="13.716" height="1.5"/>
		<rect x="134.348" y="410.73" fill="#6FD9C8" width="13.716" height="1.5"/>
		<rect x="106.915" y="410.73" fill="#6FD9C8" width="13.716" height="1.5"/>
		<rect x="433.547" y="451.121" fill="#6FD9C8" width="13.434" height="1.5"/>
		<rect x="406.679" y="451.121" fill="#6FD9C8" width="13.435" height="1.5"/>
		<rect x="379.811" y="451.121" fill="#6FD9C8" width="13.434" height="1.5"/>
		<rect x="352.942" y="451.121" fill="#6FD9C8" width="13.434" height="1.5"/>
		<rect x="461.287" y="491.512" fill="#5F4A9F" width="22.699" height="1.5"/>
		<rect x="427.238" y="491.512" fill="#5F4A9F" width="22.699" height="1.5"/>
		<rect x="393.189" y="491.512" fill="#5F4A9F" width="22.699" height="1.5"/>
		<rect x="359.141" y="491.512" fill="#5F4A9F" width="22.699" height="1.5"/>
		<rect x="325.092" y="491.512" fill="#5F4A9F" width="22.699" height="1.5"/>
		<g>
			<rect x="138.143" y="491.512" fill="#E6E3F1" width="38.115" height="1.5"/>
		</g>
		<g>
			<rect x="54.589" y="491.512" fill="#E6E3F1" width="28.952" height="1.5"/>
		</g>
		<g>
			<rect x="91.49" y="491.512" fill="#FF9C73" width="39.257" height="1.5"/>
		</g>
		<path fill="#6FD9C8" d="M493.802,210.276h5.703c0.338-0.499,0.671-1,1.006-1.5h-6.709V210.276z"/>
		<polygon fill="#6FD9C8" points="303.517,210.276 303.517,208.776 294.758,208.776 293.248,210.276 		"/>
		<path fill="#E6E3F1" d="M359.588,249.167v1.5H466.54c0.484-0.496,0.959-1.001,1.44-1.5H359.588z"/>
		<polygon fill="#5F4A9F" points="386.739,329.949 361.453,329.949 362.972,331.449 385.229,331.449 		"/>
		<path fill="#6FD9C8" d="M466.078,451.121h-5.663v1.5h7.126C467.056,452.119,466.567,451.62,466.078,451.121z"/>
		<path fill="#5F4A9F" d="M499.195,491.512h-3.86v1.5h4.865C499.865,492.512,499.534,492.009,499.195,491.512z"/>
		<polygon fill="#5F4A9F" points="313.743,491.512 292.682,491.512 294.196,493.012 313.743,493.012 		"/>
		<polygon fill="#6FD9C8" points="184.185,491.512 184.185,493.012 222.52,493.012 224.03,491.512 		"/>
		<path fill="#FF9C73" d="M46.662,493.012v-1.5H17.504c-0.34,0.499-0.677,0.999-1.014,1.5H46.662z"/>
		<polygon fill="#6FD9C8" points="93.199,412.23 93.199,410.73 91.342,410.73 89.831,412.23 		"/>
		<polygon fill="#6FD9C8" points="303.795,289.558 89.356,289.558 90.868,291.058 303.795,291.058 		"/>
		<path fill="#FF9C73" d="M17.192,210.276h25.294v-1.5H16.173C16.509,209.279,16.853,209.776,17.192,210.276z"/>
		<polygon fill="#FF9C73" points="153.343,370.339 134.35,370.339 134.35,371.839 154.212,371.839 154.212,371.176 		"/>
		<polygon fill="#6FD9C8" points="195.27,410.73 189.213,410.73 189.213,412.23 195.93,412.23 195.93,411.366 		"/>
		<path fill="#E6E3F1" d="M238.292,452.621v-0.444l-1.096-1.056H50.642l-1.328,1.318c-0.058,0.06-0.114,0.122-0.173,0.182H238.292z"
			/>
		<polygon fill="#5F4A9F" points="262.778,249.167 252.134,249.167 252.134,250.667 263.483,250.667 263.483,249.868 		"/>
		<polygon fill="#FF9C73" points="222.126,208.776 175.765,208.776 175.765,210.276 223.635,210.276 		"/>
		<polygon fill="#6FD9C8" points="131.555,331.449 156.588,331.449 156.588,329.949 130.256,329.949 130.256,330.159 		"/>
		<polygon fill="#B492FF" points="172.215,371.839 174.313,371.839 174.313,370.339 170.954,370.339 170.954,370.587 		"/>
		<polygon fill="#E6E3F1" points="212.162,411.521 212.876,412.23 426.928,412.23 425.416,410.73 212.162,410.73 		"/>
		<polygon fill="#FF9C73" points="359.974,451.121 252.026,451.121 253.536,452.621 359.974,452.621 		"/>
		<polygon fill="#B492FF" points="321.314,290.308 322.073,291.058 337.522,291.058 337.522,289.558 321.314,289.558 		"/>
		<polygon fill="#E6E3F1" points="280.363,249.865 281.175,250.667 327.608,250.667 327.608,249.167 280.363,249.167 		"/>
	</g>
	<g>
		<path fill="#7759C0" d="M335.444,331.639h-37.383v-1.5h37.383c5.443,0,9.871-4.428,9.871-9.871V125.298h1.5v194.969
			C346.815,326.538,341.714,331.639,335.444,331.639z"/>
	</g>
	<g>
		
			<rect x="233.002" y="35.908" transform="matrix(0.5 -0.866 0.866 0.5 72.0169 228.3331)" fill="#A787F3" width="1.5" height="31.779"/>
	</g>
	<g>
		
			<rect x="276.241" y="8.694" transform="matrix(0.4817 -0.8764 0.8764 0.4817 124.5317 254.0036)" fill="#A787F3" width="1.5" height="26.067"/>
	</g>
	<g>
		
			<rect x="263.246" y="51.411" transform="matrix(0.866 -0.5001 0.5001 0.866 11.0396 145.5156)" fill="#A787F3" width="27.543" height="1.5"/>
	</g>
	<g>
		
			<rect x="217.351" y="23.953" transform="matrix(0.866 -0.5001 0.5001 0.866 18.9404 120.0817)" fill="#D7CAFF" width="32.327" height="1.5"/>
	</g>
	<g>
		<rect x="255.089" y="24.208" fill="#A787F3" width="1.5" height="26.533"/>
	</g>
	<g>
		<rect x="255.089" y="75.441" fill="#A787F3" width="1.5" height="26.533"/>
	</g>
	<g>
		<path fill="#A787F3" d="M301.674,48.486c-2.765,0-5.531-1.053-7.636-3.158c-2.04-2.04-3.163-4.751-3.163-7.635
			c0-2.885,1.124-5.596,3.163-7.636c4.21-4.21,11.062-4.21,15.271,0l0,0c4.21,4.21,4.21,11.061,0,15.271
			C307.205,47.433,304.439,48.486,301.674,48.486z M301.674,28.398c-2.381,0-4.762,0.906-6.575,2.719
			c-1.756,1.756-2.724,4.092-2.724,6.575s0.967,4.819,2.724,6.575c3.626,3.625,9.524,3.625,13.15,0c3.625-3.625,3.625-9.524,0-13.15
			C306.437,29.305,304.056,28.398,301.674,28.398z"/>
	</g>
	<g>
		<path fill="#A787F3" d="M255.839,18.952c-1.829,0-3.658-0.696-5.05-2.088c-2.785-2.785-2.785-7.316,0-10.101
			c2.784-2.784,7.315-2.784,10.101,0l0,0c2.785,2.785,2.785,7.316,0,10.101C259.498,18.256,257.668,18.952,255.839,18.952z
			 M255.839,6.174c-1.445,0-2.89,0.55-3.99,1.649c-2.2,2.2-2.2,5.78,0,7.979c2.2,2.199,5.779,2.2,7.979,0
			c2.2-2.2,2.199-5.78,0-7.979C258.729,6.724,257.284,6.174,255.839,6.174z"/>
	</g>
	<g>
		<path fill="#A787F3" d="M211.75,44.412c-1.908,0-3.702-0.743-5.05-2.092c-1.349-1.349-2.092-3.143-2.092-5.05
			s0.743-3.701,2.092-5.05c1.349-1.349,3.142-2.092,5.05-2.092c1.908,0,3.701,0.743,5.05,2.092l0,0c2.785,2.784,2.785,7.315,0,10.1
			C215.452,43.669,213.658,44.412,211.75,44.412z M211.75,31.628c-1.507,0-2.924,0.587-3.99,1.653
			c-1.066,1.066-1.653,2.482-1.653,3.99s0.587,2.924,1.653,3.99c1.065,1.066,2.482,1.653,3.99,1.653c1.507,0,2.924-0.587,3.99-1.653
			c2.2-2.2,2.199-5.779,0-7.979l0,0C214.674,32.215,213.257,31.628,211.75,31.628z"/>
	</g>
	<g>
		<path fill="#A787F3" d="M256.495,71.376c-1.908,0-3.701-0.743-5.05-2.092c-1.349-1.349-2.092-3.143-2.092-5.05
			s0.743-3.701,2.092-5.05c1.349-1.349,3.142-2.092,5.05-2.092s3.702,0.743,5.05,2.092l0,0c0,0,0,0,0,0
			c1.349,1.349,2.092,3.143,2.092,5.05s-0.743,3.701-2.092,5.05C260.197,70.634,258.403,71.376,256.495,71.376z M256.495,58.592
			c-1.507,0-2.924,0.587-3.989,1.652c-1.066,1.066-1.653,2.483-1.653,3.99s0.587,2.924,1.653,3.99
			c1.065,1.065,2.482,1.652,3.989,1.652c1.507,0,2.924-0.587,3.99-1.652c1.066-1.066,1.653-2.483,1.653-3.99
			s-0.587-2.924-1.653-3.99l0,0C259.419,59.179,258.002,58.592,256.495,58.592z"/>
	</g>
	<g>
		<rect x="210.783" y="47.021" fill="#D7CAFF" width="1.5" height="29.606"/>
	</g>
	<g>
		<rect x="253.804" y="125.646" fill="#D7CAFF" width="1.5" height="26.533"/>
	</g>
	<g>
		
			<rect x="262.679" y="101.344" transform="matrix(0.866 -0.5001 0.5001 0.866 -14.2109 151.1599)" fill="#A787F3" width="24.489" height="1.5"/>
	</g>
	<g>
		
			<rect x="232.705" y="85.283" transform="matrix(0.5 -0.866 0.866 0.5 29.7446 252.3971)" fill="#A787F3" width="1.5" height="30.311"/>
	</g>
	<g>
		
			<rect x="216.123" y="125.593" transform="matrix(0.866 -0.5001 0.5001 0.866 -32.1085 132.8722)" fill="#D7CAFF" width="31.461" height="1.5"/>
	</g>
	<g>
		<path fill="#A787F3" d="M301.458,99.235c-2.884,0-5.596-1.123-7.636-3.163c-2.04-2.04-3.163-4.751-3.163-7.635
			c0-2.885,1.124-5.596,3.163-7.636s4.751-3.163,7.636-3.163s5.596,1.124,7.635,3.163l0,0c0,0,0,0,0,0
			c2.04,2.04,3.163,4.751,3.163,7.636c0,2.884-1.124,5.596-3.163,7.635S304.342,99.235,301.458,99.235z M301.458,79.138
			c-2.484,0-4.819,0.967-6.575,2.723c-1.756,1.756-2.724,4.092-2.724,6.575s0.967,4.819,2.724,6.575s4.091,2.723,6.575,2.723
			c2.483,0,4.818-0.967,6.575-2.723s2.724-4.091,2.724-6.575s-0.967-4.819-2.724-6.575l0,0
			C306.276,80.105,303.941,79.138,301.458,79.138z"/>
	</g>
	<g>
		<path fill="#A787F3" d="M211.533,95.157c-1.908,0-3.701-0.743-5.05-2.092c-1.349-1.349-2.092-3.143-2.092-5.05
			s0.743-3.701,2.092-5.05c1.349-1.349,3.142-2.092,5.05-2.092s3.702,0.743,5.05,2.092l0,0l0,0c1.349,1.349,2.092,3.142,2.092,5.05
			s-0.743,3.701-2.092,5.05C215.235,94.414,213.441,95.157,211.533,95.157z M211.533,82.372c-1.507,0-2.924,0.587-3.989,1.653
			c-1.066,1.066-1.653,2.482-1.653,3.99s0.587,2.924,1.653,3.99c1.065,1.066,2.482,1.653,3.989,1.653
			c1.507,0,2.924-0.587,3.99-1.653c1.066-1.066,1.653-2.483,1.653-3.99s-0.587-2.924-1.653-3.99l0,0
			C214.458,82.959,213.041,82.372,211.533,82.372z"/>
	</g>
	<g>
		<path fill="#D7CAFF" d="M208.719,146.255c-1.829,0-3.658-0.696-5.05-2.088c-2.785-2.785-2.785-7.316,0-10.101l0,0
			c1.349-1.349,3.143-2.092,5.05-2.092c1.908,0,3.702,0.743,5.05,2.092c2.785,2.785,2.785,7.316,0,10.101
			C212.377,145.559,210.548,146.255,208.719,146.255z M204.729,135.127L204.729,135.127c-2.2,2.2-2.2,5.78,0,7.979
			c2.201,2.2,5.78,2.199,7.979,0c2.2-2.2,2.2-5.78,0-7.979c-1.065-1.066-2.482-1.653-3.99-1.653
			C207.212,133.474,205.795,134.061,204.729,135.127z"/>
	</g>
	<g>
		<path fill="#A787F3" d="M255.622,120.38c-1.908,0-3.701-0.743-5.05-2.092c-1.349-1.349-2.092-3.143-2.092-5.05
			s0.743-3.701,2.092-5.05c1.349-1.349,3.142-2.092,5.05-2.092s3.702,0.743,5.05,2.092l0,0l0,0c1.349,1.349,2.092,3.142,2.092,5.05
			s-0.743,3.701-2.092,5.05C259.324,119.637,257.53,120.38,255.622,120.38z M255.622,107.595c-1.507,0-2.924,0.587-3.989,1.653
			c-1.066,1.066-1.653,2.482-1.653,3.99s0.587,2.924,1.653,3.99c1.065,1.066,2.482,1.653,3.989,1.653
			c1.507,0,2.924-0.587,3.99-1.653c1.066-1.066,1.653-2.483,1.653-3.99s-0.587-2.924-1.653-3.99l0,0
			C258.546,108.182,257.129,107.595,255.622,107.595z"/>
	</g>
	<g>
		<path fill="#D7CAFF" d="M253.897,169.801c-1.908,0-3.701-0.743-5.05-2.092c-1.349-1.349-2.092-3.143-2.092-5.05
			s0.743-3.701,2.092-5.05c1.349-1.349,3.142-2.092,5.05-2.092c1.908,0,3.702,0.743,5.05,2.092c1.349,1.349,2.092,3.143,2.092,5.05
			s-0.743,3.701-2.092,5.05C257.599,169.058,255.806,169.801,253.897,169.801z M253.897,157.016c-1.507,0-2.924,0.587-3.989,1.652
			l0,0c-1.066,1.066-1.653,2.483-1.653,3.99s0.587,2.924,1.653,3.99c1.065,1.066,2.482,1.653,3.989,1.653
			c1.507,0,2.924-0.587,3.99-1.653c1.066-1.066,1.653-2.483,1.653-3.99s-0.587-2.924-1.653-3.99
			C256.822,157.603,255.405,157.016,253.897,157.016z"/>
	</g>
	<g>
		<path fill="#D7CAFF" d="M167.94,18.956c-1.908,0-3.702-0.743-5.05-2.092c-2.785-2.785-2.785-7.316,0-10.101
			c2.784-2.784,7.315-2.785,10.101,0l0,0c2.785,2.785,2.785,7.316,0,10.101C171.642,18.213,169.848,18.956,167.94,18.956z
			 M167.94,6.174c-1.445,0-2.89,0.55-3.99,1.65c-2.2,2.2-2.2,5.78,0,7.979c1.065,1.066,2.482,1.653,3.99,1.653
			c1.507,0,2.924-0.587,3.99-1.653c2.2-2.2,2.199-5.78,0-7.979C170.83,6.724,169.385,6.174,167.94,6.174z"/>
	</g>
	<g>
		<path fill="#D7CAFF" d="M13.8,321.582c-1.908,0-3.701-0.743-5.05-2.092c-2.785-2.784-2.785-7.315,0-10.1
			c1.349-1.349,3.143-2.092,5.05-2.092c1.908,0,3.702,0.743,5.05,2.092c1.349,1.349,2.092,3.143,2.092,5.05s-0.743,3.701-2.092,5.05
			C17.501,320.839,15.708,321.582,13.8,321.582z M13.8,308.798c-1.507,0-2.924,0.587-3.99,1.653c-2.2,2.2-2.2,5.78,0,7.979
			c1.066,1.066,2.483,1.653,3.99,1.653c1.507,0,2.924-0.587,3.99-1.653c1.066-1.066,1.653-2.482,1.653-3.99s-0.587-2.924-1.653-3.99
			l0,0C16.724,309.385,15.307,308.798,13.8,308.798z"/>
	</g>
	<g>
		<polygon fill="#171321" points="345.248,116.134 299.708,89.842 299.708,36.823 329.229,19.78 329.979,21.078 301.208,37.69 
			301.208,88.975 345.998,114.835 		"/>
	</g>
	<g>
		<polygon fill="#171321" points="361.071,107.431 360.321,106.132 390.037,88.975 390.037,37.69 345.248,11.83 345.998,10.531 
			391.537,36.823 391.537,89.842 		"/>
	</g>
	<g>
		
			<rect x="307.843" y="77.086" transform="matrix(0.866 -0.5001 0.5001 0.866 3.9293 170.3348)" fill="#D7CAFF" width="23.853" height="1.5"/>
	</g>
	<g>
		<rect x="345.013" y="18.118" fill="#D7CAFF" width="1.5" height="41.942"/>
	</g>
	<g>
		<rect x="345.013" y="78.237" fill="#171321" width="1.5" height="26.533"/>
	</g>
	<g>
		
			<rect x="342.954" y="51.593" transform="matrix(0.866 -0.5001 0.5001 0.866 22.5946 188.9988)" fill="#171321" width="41.942" height="1.5"/>
	</g>
	<g>
		
			<rect x="326.852" y="31.372" transform="matrix(0.5 -0.866 0.866 0.5 118.4704 309.8831)" fill="#171321" width="1.5" height="41.942"/>
	</g>
	<g>
		
			<rect x="363.175" y="52.343" transform="matrix(0.5 -0.866 0.866 0.5 118.4704 351.825)" fill="#D7CAFF" width="1.5" height="41.942"/>
	</g>
	<g>
		<circle fill="#FF9C73" cx="346.419" cy="11.415" r="10.048"/>
		<path fill="#171321" d="M346.419,22.214c-2.884,0-5.596-1.123-7.636-3.163c-2.04-2.04-3.163-4.751-3.163-7.635
			c0-2.885,1.124-5.596,3.163-7.636s4.751-3.163,7.636-3.163s5.596,1.124,7.635,3.163l0,0c0,0,0,0,0,0
			c2.04,2.04,3.163,4.751,3.163,7.636c0,2.884-1.124,5.596-3.163,7.635S349.304,22.214,346.419,22.214z M346.419,2.117
			c-2.484,0-4.819,0.967-6.575,2.723c-1.756,1.756-2.724,4.092-2.724,6.575s0.967,4.819,2.724,6.575s4.091,2.723,6.575,2.723
			c2.483,0,4.818-0.967,6.575-2.723s2.724-4.091,2.724-6.575s-0.967-4.819-2.724-6.575l0,0
			C351.238,3.084,348.903,2.117,346.419,2.117z"/>
	</g>
	<g>
		<circle fill="#FF9C73" cx="391.598" cy="38.028" r="10.048"/>
		<path fill="#171321" d="M391.598,48.821c-2.765,0-5.531-1.052-7.636-3.158c-4.21-4.21-4.21-11.061,0-15.271
			c4.21-4.21,11.062-4.209,15.271,0l0,0c0,0,0,0,0,0c2.04,2.04,3.163,4.751,3.163,7.635c0,2.885-1.124,5.596-3.163,7.636
			C397.129,47.769,394.363,48.821,391.598,48.821z M391.598,28.734c-2.381,0-4.762,0.906-6.575,2.719
			c-3.625,3.625-3.625,9.524,0,13.15c3.625,3.625,9.524,3.625,13.15,0c1.756-1.756,2.724-4.092,2.724-6.575
			s-0.967-4.819-2.724-6.575l0,0C396.36,29.64,393.979,28.734,391.598,28.734z"/>
	</g>
	<g>
		<circle fill="#FF9C73" cx="301.674" cy="37.606" r="10.049"/>
		<path fill="#171321" d="M301.674,48.399c-2.766,0-5.53-1.052-7.636-3.158c-2.04-2.04-3.163-4.751-3.163-7.635
			c0-2.885,1.124-5.596,3.163-7.636c4.21-4.21,11.062-4.21,15.271,0l0,0c2.04,2.04,3.163,4.751,3.163,7.636
			c0,2.884-1.124,5.596-3.163,7.635C307.205,47.346,304.439,48.399,301.674,48.399z M301.674,28.312
			c-2.381,0-4.762,0.906-6.575,2.719c-1.756,1.756-2.724,4.092-2.724,6.575s0.967,4.819,2.724,6.575
			c3.626,3.625,9.524,3.625,13.15,0c1.756-1.756,2.724-4.091,2.724-6.575s-0.968-4.819-2.724-6.575
			C306.437,29.218,304.056,28.312,301.674,28.312z"/>
	</g>
	<g>
		<circle fill="#FF9C73" cx="391.598" cy="88.708" r="10.048"/>
		<path fill="#171321" d="M391.598,99.501c-2.765,0-5.531-1.052-7.636-3.158c-4.21-4.21-4.21-11.061,0-15.271
			c4.21-4.21,11.062-4.209,15.271,0l0,0c0,0,0,0,0,0c2.04,2.04,3.163,4.751,3.163,7.635c0,2.885-1.124,5.596-3.163,7.636
			C397.129,98.448,394.363,99.501,391.598,99.501z M391.598,79.414c-2.381,0-4.762,0.906-6.575,2.719
			c-3.625,3.625-3.625,9.524,0,13.15c3.625,3.625,9.524,3.625,13.15,0c1.756-1.756,2.724-4.092,2.724-6.575
			s-0.967-4.819-2.724-6.575l0,0C396.36,80.32,393.979,79.414,391.598,79.414z"/>
	</g>
	<g>
		<circle fill="#FF9C73" cx="345.763" cy="62.829" r="10.048"/>
		<path fill="#171321" d="M345.763,73.622c-2.766,0-5.53-1.052-7.636-3.158c-4.21-4.21-4.21-11.061,0-15.271s11.062-4.21,15.271,0
			l0,0c2.04,2.04,3.163,4.751,3.163,7.636c0,2.884-1.124,5.596-3.163,7.635C351.294,72.569,348.528,73.622,345.763,73.622z
			 M345.763,53.534c-2.381,0-4.762,0.906-6.575,2.719c-3.625,3.626-3.625,9.525,0,13.15c3.625,3.625,9.525,3.625,13.15,0
			c1.756-1.756,2.724-4.091,2.724-6.575s-0.968-4.819-2.724-6.575C350.525,54.441,348.145,53.534,345.763,53.534z"/>
	</g>
	<g>
		<circle fill="#FF9C73" cx="301.674" cy="88.285" r="10.048"/>
		<path fill="#171321" d="M301.674,99.079c-2.765,0-5.531-1.053-7.636-3.158c-2.04-2.04-3.163-4.751-3.163-7.635
			c0-2.885,1.124-5.596,3.163-7.636c4.21-4.21,11.062-4.21,15.271,0l0,0c4.21,4.21,4.21,11.061,0,15.271
			C307.205,98.026,304.439,99.079,301.674,99.079z M301.674,78.991c-2.381,0-4.762,0.906-6.575,2.719
			c-1.756,1.756-2.724,4.092-2.724,6.575s0.967,4.819,2.724,6.575c3.626,3.625,9.524,3.625,13.15,0c3.625-3.625,3.625-9.524,0-13.15
			C306.437,79.898,304.056,78.991,301.674,78.991z"/>
	</g>
	<g>
		<circle fill="#FF9C73" cx="346.419" cy="115.25" r="10.048"/>
		<path fill="#171321" d="M346.419,126.048c-2.884,0-5.596-1.123-7.636-3.163c-2.04-2.04-3.163-4.751-3.163-7.635
			c0-2.885,1.124-5.596,3.163-7.636s4.751-3.163,7.636-3.163s5.596,1.124,7.635,3.163l0,0c0,0,0,0,0,0
			c2.04,2.04,3.163,4.751,3.163,7.636c0,2.884-1.124,5.596-3.163,7.635S349.304,126.048,346.419,126.048z M346.419,105.951
			c-2.484,0-4.819,0.967-6.575,2.723c-1.756,1.756-2.724,4.091-2.724,6.575c0,2.484,0.967,4.819,2.724,6.575
			s4.091,2.723,6.575,2.723c2.483,0,4.818-0.967,6.575-2.723s2.724-4.091,2.724-6.575c0-2.484-0.967-4.819-2.724-6.575l0,0
			C351.238,106.918,348.903,105.951,346.419,105.951z"/>
	</g>
	<g>
		<rect x="526.877" y="378.488" fill="#D7CAFF" width="23.158" height="1.5"/>
	</g>
	<g>
		
			<rect x="527.376" y="384.507" transform="matrix(0.866 -0.5 0.5 0.866 -127.4259 317.1687)" fill="#D7CAFF" width="1.5" height="23.71"/>
	</g>
	<g>
		<rect x="526.877" y="378.488" fill="#D7CAFF" width="23.158" height="1.5"/>
	</g>
	<g>
		
			<rect x="527.376" y="384.507" transform="matrix(0.866 -0.5 0.5 0.866 -127.4259 317.1687)" fill="#D7CAFF" width="1.5" height="23.71"/>
	</g>
	<g>
		<path fill="#D7CAFF" d="M518.407,384.988c-1.536,0-2.979-0.598-4.065-1.684c-1.086-1.086-1.684-2.53-1.684-4.066
			s0.598-2.98,1.684-4.066l0,0c1.086-1.086,2.53-1.684,4.065-1.684c1.536,0,2.98,0.598,4.066,1.684
			c1.086,1.086,1.684,2.53,1.684,4.066s-0.598,2.98-1.684,4.066C521.387,384.39,519.943,384.988,518.407,384.988z M518.407,374.99
			c-1.088,0-2.176,0.414-3.005,1.243l0,0c-0.803,0.803-1.245,1.87-1.245,3.005s0.442,2.203,1.245,3.005
			c1.658,1.657,4.354,1.656,6.01,0c0.803-0.803,1.245-1.87,1.245-3.005s-0.442-2.202-1.245-3.005
			C520.584,375.404,519.496,374.99,518.407,374.99z"/>
	</g>
	<g>
		<path fill="#D7CAFF" d="M538.137,419.521c-1.536,0-2.98-0.598-4.066-1.684c-1.086-1.086-1.684-2.53-1.684-4.066
			c0-1.536,0.598-2.98,1.684-4.066c1.086-1.086,2.53-1.684,4.066-1.684s2.98,0.598,4.066,1.684c1.086,1.086,1.684,2.53,1.684,4.066
			c0,1.536-0.598,2.98-1.684,4.066C541.117,418.923,539.673,419.521,538.137,419.521z M538.137,409.522
			c-1.088,0-2.177,0.414-3.005,1.243c-1.657,1.657-1.657,4.353,0,6.01s4.354,1.657,6.011,0s1.657-4.353,0-6.01
			C540.314,409.937,539.226,409.522,538.137,409.522z"/>
	</g>
	<g>
		<path fill="#D7CAFF" d="M558.05,384.988c-1.536,0-2.98-0.598-4.066-1.684c-1.086-1.086-1.684-2.53-1.684-4.066
			s0.598-2.98,1.684-4.066l0,0c0,0,0,0,0,0c1.086-1.086,2.53-1.684,4.066-1.684c1.536,0,2.979,0.598,4.065,1.684
			c1.086,1.086,1.684,2.53,1.684,4.066s-0.598,2.98-1.684,4.066C561.029,384.39,559.585,384.988,558.05,384.988z M558.049,374.99
			c-1.088,0-2.176,0.414-3.005,1.243l0,0c-0.803,0.803-1.245,1.87-1.245,3.005s0.442,2.203,1.245,3.005
			c1.657,1.657,4.353,1.657,6.01,0c0.803-0.803,1.245-1.87,1.245-3.005s-0.442-2.202-1.245-3.005
			C560.226,375.404,559.138,374.99,558.049,374.99z"/>
	</g>
	<circle fill="#FF9B73" cx="292.629" cy="330.889" r="5.432"/>
	<g>
		<circle fill="#FF9C73" cx="292.629" cy="330.889" r="6.5"/>
		<path fill="#171321" d="M292.629,338.139c-3.998,0-7.25-3.252-7.25-7.25s3.252-7.25,7.25-7.25s7.25,3.252,7.25,7.25
			S296.626,338.139,292.629,338.139z M292.629,325.139c-3.17,0-5.75,2.579-5.75,5.75s2.58,5.75,5.75,5.75s5.75-2.579,5.75-5.75
			S295.799,325.139,292.629,325.139z"/>
	</g>
	<g>
		<path fill="#D7CAFF" d="M523.522,18.956c-1.908,0-3.701-0.743-5.05-2.092c-2.785-2.785-2.785-7.316,0-10.101
			c2.785-2.785,7.316-2.784,10.101,0l0,0c2.785,2.785,2.785,7.316,0,10.101C527.224,18.213,525.431,18.956,523.522,18.956z
			 M523.522,6.174c-1.445,0-2.89,0.55-3.99,1.65c-2.2,2.2-2.2,5.78,0,7.979c1.066,1.066,2.483,1.653,3.99,1.653
			c1.507,0,2.924-0.587,3.99-1.653c2.2-2.2,2.199-5.78,0-7.979C526.413,6.724,524.967,6.174,523.522,6.174z"/>
	</g>
	<g>
		<rect x="119.688" y="47.725" fill="#D7CAFF" width="1.5" height="24.644"/>
	</g>
	<g>
		
			<rect x="101.597" y="56.982" transform="matrix(0.5 -0.866 0.866 0.5 -9.8261 123.8532)" fill="#D7CAFF" width="1.5" height="26.908"/>
	</g>
	<g>
		
			<rect x="89.601" y="48.305" transform="matrix(0.866 -0.5001 0.5001 0.866 -10.8323 57.688)" fill="#D7CAFF" width="25.23" height="1.5"/>
	</g>
	<g>
		<path fill="#D7CAFF" d="M120.438,44.783c-1.622,0-3.146-0.631-4.292-1.778c-1.147-1.146-1.778-2.671-1.778-4.293
			c0-1.621,0.631-3.146,1.778-4.292c1.146-1.147,2.671-1.778,4.292-1.778s3.146,0.632,4.292,1.778l0,0l0,0
			c1.147,1.146,1.778,2.671,1.778,4.292c0,1.622-0.631,3.146-1.778,4.293C123.584,44.152,122.06,44.783,120.438,44.783z
			 M120.438,34.142c-1.221,0-2.369,0.475-3.232,1.339s-1.339,2.011-1.339,3.232c0,1.221,0.476,2.369,1.339,3.232
			s2.011,1.339,3.232,1.339s2.369-0.475,3.232-1.339s1.339-2.011,1.339-3.232c0-1.221-0.476-2.369-1.339-3.232l0,0
			C122.807,34.617,121.659,34.142,120.438,34.142z"/>
	</g>
	<g>
		<path fill="#D7CAFF" d="M83.69,65.775c-1.554,0-3.109-0.592-4.292-1.775c-2.367-2.367-2.367-6.218,0-8.585
			c2.367-2.366,6.218-2.367,8.585,0l0,0c2.367,2.367,2.367,6.218,0,8.585C86.8,65.183,85.245,65.775,83.69,65.775z M83.691,55.139
			c-1.171,0-2.341,0.446-3.232,1.336c-1.782,1.782-1.782,4.682,0,6.464c1.783,1.782,4.683,1.781,6.464,0
			c1.782-1.782,1.782-4.682,0-6.464C86.032,55.585,84.861,55.139,83.691,55.139z"/>
	</g>
	<g>
		<path fill="#D7CAFF" d="M120.438,86.968c-1.622,0-3.146-0.631-4.292-1.778c-1.147-1.146-1.778-2.671-1.778-4.292
			s0.631-3.146,1.778-4.292c1.146-1.147,2.671-1.778,4.292-1.778s3.146,0.632,4.292,1.778l0,0l0,0
			c1.147,1.146,1.778,2.671,1.778,4.292s-0.631,3.146-1.778,4.292C123.584,86.336,122.06,86.968,120.438,86.968z M120.438,76.327
			c-1.221,0-2.369,0.475-3.232,1.339s-1.339,2.011-1.339,3.232s0.476,2.369,1.339,3.232s2.011,1.339,3.232,1.339
			s2.369-0.475,3.232-1.339s1.339-2.011,1.339-3.232s-0.476-2.369-1.339-3.232l0,0C122.807,76.802,121.659,76.327,120.438,76.327z"
			/>
	</g>
	<g>
		<rect x="563.182" y="47.725" fill="#D7CAFF" width="1.5" height="24.644"/>
	</g>
	<g>
		
			<rect x="568.569" y="69.686" transform="matrix(0.866 -0.5001 0.5001 0.866 42.7743 300.486)" fill="#D7CAFF" width="26.908" height="1.5"/>
	</g>
	<g>
		
			<rect x="581.404" y="36.439" transform="matrix(0.5 -0.866 0.866 0.5 248.5934 528.6866)" fill="#D7CAFF" width="1.5" height="25.23"/>
	</g>
	<g>
		<path fill="#D7CAFF" d="M563.932,44.783c-1.622,0-3.146-0.631-4.292-1.778c-1.147-1.146-1.778-2.671-1.778-4.293
			c0-1.621,0.632-3.146,1.778-4.292l0,0c0,0,0,0,0,0c1.146-1.147,2.671-1.778,4.292-1.778s3.146,0.631,4.292,1.778
			c1.147,1.146,1.778,2.671,1.778,4.292c0,1.622-0.631,3.146-1.778,4.293C567.078,44.152,565.553,44.783,563.932,44.783z
			 M563.932,34.142c-1.221,0-2.369,0.475-3.232,1.339l0,0c-0.863,0.863-1.339,2.011-1.339,3.232c0,1.221,0.476,2.369,1.339,3.232
			s2.011,1.339,3.232,1.339s2.369-0.475,3.232-1.339s1.339-2.011,1.339-3.232c0-1.221-0.476-2.369-1.339-3.232
			S565.152,34.142,563.932,34.142z"/>
	</g>
	<g>
		<path fill="#D7CAFF" d="M600.679,65.778c-1.622,0-3.146-0.631-4.292-1.778c-2.367-2.367-2.366-6.218,0-8.585l0,0c0,0,0,0,0,0
			c1.146-1.147,2.671-1.778,4.292-1.778s3.146,0.631,4.292,1.778c1.147,1.146,1.778,2.671,1.778,4.292s-0.631,3.146-1.778,4.292
			C603.825,65.147,602.301,65.778,600.679,65.778z M600.679,55.137c-1.221,0-2.369,0.475-3.232,1.339l0,0
			c-1.782,1.782-1.782,4.682,0,6.464c0.863,0.863,2.011,1.339,3.232,1.339s2.369-0.475,3.232-1.339s1.339-2.011,1.339-3.232
			c0-1.221-0.476-2.369-1.339-3.232C603.048,55.612,601.9,55.137,600.679,55.137z"/>
	</g>
	<g>
		<path fill="#D7CAFF" d="M563.932,86.968c-1.622,0-3.146-0.631-4.292-1.778c-1.147-1.146-1.778-2.671-1.778-4.292
			c0-1.621,0.632-3.146,1.778-4.292l0,0c0,0,0,0,0,0c1.146-1.147,2.671-1.778,4.292-1.778s3.146,0.631,4.292,1.778
			c1.147,1.146,1.778,2.671,1.778,4.292s-0.631,3.146-1.778,4.292C567.078,86.336,565.553,86.968,563.932,86.968z M563.932,76.327
			c-1.221,0-2.369,0.475-3.232,1.339l0,0c-0.863,0.863-1.339,2.011-1.339,3.232s0.476,2.369,1.339,3.232s2.011,1.339,3.232,1.339
			s2.369-0.475,3.232-1.339s1.339-2.011,1.339-3.232s-0.476-2.369-1.339-3.232S565.152,76.327,563.932,76.327z"/>
	</g>
	<g>
		
			<rect x="443.203" y="51.048" transform="matrix(0.866 -0.5001 0.5001 0.866 35.6207 236.5154)" fill="#A787F3" width="31.779" height="1.5"/>
	</g>
	<g>
		
			<rect x="402.819" y="20.977" transform="matrix(0.8763 -0.4818 0.4818 0.8763 40.9741 203.0326)" fill="#A787F3" width="26.067" height="1.5"/>
	</g>
	<g>
		
			<rect x="415.076" y="38.389" transform="matrix(0.5 -0.866 0.866 0.5 162.7411 386.1965)" fill="#A787F3" width="1.5" height="27.543"/>
	</g>
	<g>
		
			<rect x="458.579" y="8.539" transform="matrix(0.5 -0.866 0.866 0.5 208.2711 410.1417)" fill="#D7CAFF" width="1.5" height="32.327"/>
	</g>
	<g>
		<rect x="436.254" y="24.208" fill="#A787F3" width="1.5" height="26.533"/>
	</g>
	<g>
		<rect x="436.254" y="75.441" fill="#A787F3" width="1.5" height="26.533"/>
	</g>
	<g>
		<path fill="#A787F3" d="M437.004,18.952c-1.829,0-3.658-0.696-5.05-2.088c-2.785-2.785-2.785-7.316,0-10.101l0,0
			c2.785-2.784,7.315-2.784,10.101,0c2.785,2.785,2.785,7.316,0,10.101C440.663,18.256,438.833,18.952,437.004,18.952z
			 M433.015,7.823c-2.2,2.2-2.2,5.78,0,7.979c2.2,2.199,5.779,2.2,7.979,0c2.2-2.2,2.2-5.78,0-7.979
			C438.794,5.624,435.215,5.624,433.015,7.823L433.015,7.823z"/>
	</g>
	<g>
		<path fill="#A787F3" d="M481.093,44.412c-1.908,0-3.701-0.743-5.05-2.092c-2.785-2.785-2.785-7.316,0-10.1l0,0
			c1.349-1.349,3.143-2.092,5.05-2.092c1.908,0,3.702,0.743,5.05,2.092c2.785,2.784,2.785,7.315,0,10.1
			C484.795,43.669,483.001,44.412,481.093,44.412z M477.104,33.281c-2.2,2.2-2.2,5.779,0,7.979c1.066,1.066,2.483,1.653,3.99,1.653
			c1.507,0,2.924-0.587,3.99-1.653c2.2-2.2,2.2-5.78,0-7.979c-1.065-1.066-2.482-1.653-3.99-1.653
			C479.586,31.628,478.169,32.215,477.104,33.281L477.104,33.281z"/>
	</g>
	<g>
		<path fill="#A787F3" d="M436.349,71.376c-1.908,0-3.702-0.743-5.05-2.092c-1.349-1.349-2.092-3.143-2.092-5.05
			s0.743-3.701,2.092-5.05l0,0c0,0,0,0,0,0c1.349-1.349,3.142-2.092,5.05-2.092c1.908,0,3.701,0.743,5.05,2.092
			c1.349,1.349,2.092,3.143,2.092,5.05s-0.743,3.701-2.092,5.05C440.05,70.634,438.256,71.376,436.349,71.376z M436.349,58.592
			c-1.507,0-2.924,0.587-3.99,1.652l0,0c-1.066,1.066-1.653,2.483-1.653,3.99s0.587,2.924,1.653,3.99
			c1.065,1.065,2.482,1.652,3.99,1.652c1.507,0,2.924-0.587,3.989-1.652c1.066-1.066,1.653-2.483,1.653-3.99
			s-0.587-2.924-1.653-3.99C439.272,59.179,437.855,58.592,436.349,58.592z"/>
	</g>
	<g>
		<rect x="480.561" y="47.021" fill="#D7CAFF" width="1.5" height="29.606"/>
	</g>
	<g>
		<rect x="437.455" y="125.646" fill="#D7CAFF" width="1.5" height="26.533"/>
	</g>
	<g>
		
			<rect x="417.171" y="89.85" transform="matrix(0.5 -0.866 0.866 0.5 120.5448 412.9774)" fill="#A787F3" width="1.5" height="24.489"/>
	</g>
	<g>
		
			<rect x="444.233" y="99.689" transform="matrix(0.866 -0.5001 0.5001 0.866 11.337 243.1821)" fill="#A787F3" width="30.311" height="1.5"/>
	</g>
	<g>
		
			<rect x="460.154" y="110.612" transform="matrix(0.5 -0.866 0.866 0.5 121.0365 462.327)" fill="#D7CAFF" width="1.5" height="31.461"/>
	</g>
	<g>
		<path fill="#A787F3" d="M481.311,95.157c-1.908,0-3.702-0.743-5.05-2.092c-1.349-1.349-2.092-3.143-2.092-5.05
			s0.743-3.701,2.092-5.05l0,0c0,0,0,0,0,0c1.349-1.349,3.142-2.092,5.05-2.092c1.908,0,3.701,0.743,5.05,2.092
			c1.349,1.349,2.092,3.142,2.092,5.05s-0.743,3.701-2.092,5.05C485.012,94.414,483.218,95.157,481.311,95.157z M481.311,82.372
			c-1.507,0-2.924,0.587-3.99,1.653l0,0c-1.066,1.066-1.653,2.482-1.653,3.99s0.587,2.924,1.653,3.99
			c1.065,1.066,2.482,1.653,3.99,1.653c1.507,0,2.924-0.587,3.989-1.653c1.066-1.066,1.653-2.483,1.653-3.99
			s-0.587-2.924-1.653-3.99C484.234,82.959,482.817,82.372,481.311,82.372z"/>
	</g>
	<g>
		<path fill="#A787F3" d="M437.222,120.38c-1.908,0-3.702-0.743-5.05-2.092c-1.349-1.349-2.092-3.143-2.092-5.05
			s0.743-3.701,2.092-5.05l0,0c0,0,0,0,0,0c1.349-1.349,3.142-2.092,5.05-2.092c1.908,0,3.701,0.743,5.05,2.092
			c1.349,1.349,2.092,3.142,2.092,5.05s-0.743,3.701-2.092,5.05C440.923,119.637,439.129,120.38,437.222,120.38z M437.222,107.595
			c-1.507,0-2.924,0.587-3.99,1.653l0,0c-1.066,1.066-1.653,2.482-1.653,3.99s0.587,2.924,1.653,3.99
			c1.065,1.066,2.482,1.653,3.99,1.653c1.507,0,2.924-0.587,3.989-1.653c1.066-1.066,1.653-2.483,1.653-3.99
			s-0.587-2.924-1.653-3.99C440.146,108.182,438.729,107.595,437.222,107.595z"/>
	</g>
	<g>
		<path fill="#D7CAFF" d="M438.86,169.801c-1.908,0-3.701-0.743-5.05-2.092c-1.349-1.349-2.092-3.143-2.092-5.05
			s0.743-3.701,2.092-5.05c1.349-1.349,3.142-2.092,5.05-2.092s3.702,0.743,5.05,2.092l0,0c0,0,0,0,0,0
			c1.349,1.349,2.092,3.143,2.092,5.05s-0.743,3.701-2.092,5.05C442.562,169.058,440.769,169.801,438.86,169.801z M438.86,157.016
			c-1.507,0-2.924,0.587-3.989,1.652c-1.066,1.066-1.653,2.483-1.653,3.99s0.587,2.924,1.653,3.99
			c1.065,1.066,2.482,1.653,3.989,1.653c1.507,0,2.924-0.587,3.99-1.653c1.066-1.066,1.653-2.483,1.653-3.99
			s-0.587-2.924-1.653-3.99l0,0C441.785,157.603,440.368,157.016,438.86,157.016z"/>
	</g>
	<g>
		<path fill="#D7CAFF" d="M484.04,146.255c-1.83,0-3.658-0.696-5.05-2.088c-2.785-2.785-2.785-7.316,0-10.101
			c1.349-1.349,3.142-2.092,5.05-2.092c1.908,0,3.701,0.743,5.05,2.092l0,0c2.785,2.785,2.785,7.316,0,10.101
			C487.698,145.559,485.868,146.255,484.04,146.255z M484.04,133.474c-1.507,0-2.924,0.587-3.99,1.653c-2.2,2.2-2.2,5.78,0,7.979
			c2.199,2.199,5.779,2.2,7.979,0c2.2-2.2,2.2-5.78,0-7.979C486.963,134.061,485.546,133.474,484.04,133.474z"/>
	</g>
	<g>
		<path fill="#D7CAFF" d="M594.128,339.082c-1.908,0-3.701-0.743-5.05-2.092c-1.349-1.349-2.092-3.142-2.092-5.05
			s0.743-3.701,2.092-5.05c1.349-1.349,3.142-2.092,5.05-2.092s3.702,0.743,5.05,2.092l0,0l0,0c1.349,1.349,2.092,3.143,2.092,5.05
			s-0.743,3.701-2.092,5.05C597.83,338.339,596.036,339.082,594.128,339.082z M594.128,326.298c-1.507,0-2.924,0.587-3.989,1.653
			c-1.066,1.066-1.653,2.483-1.653,3.99s0.587,2.924,1.653,3.99c1.065,1.066,2.482,1.653,3.989,1.653
			c1.507,0,2.924-0.587,3.99-1.653c1.066-1.066,1.653-2.482,1.653-3.99s-0.587-2.924-1.653-3.99l0,0
			C597.052,326.885,595.635,326.298,594.128,326.298z"/>
	</g>
	<g>
		<g>
			
				<rect x="371.749" y="335.942" transform="matrix(0.7097 -0.7045 0.7045 0.7097 -126.9023 365.4122)" fill="#B492FF" width="16.398" height="1.5"/>
		</g>
		<g>
			<path fill="#B492FF" d="M12.703,500.162l-1.268-0.802c10.75-17.003,23.313-32.965,37.341-47.443l93.206-92.546l1.057,1.064
				l-93.196,92.536C35.896,467.365,23.397,483.246,12.703,500.162z"/>
		</g>
		<g>
			
				<rect x="280.287" y="215.645" transform="matrix(0.7057 -0.7085 0.7085 0.7057 -106.7486 277.799)" fill="#B492FF" width="1.5" height="103.514"/>
		</g>
		<g>
			
				<rect x="214.675" y="177.634" transform="matrix(0.7046 -0.7096 0.7096 0.7046 -79.7967 212.5952)" fill="#B492FF" width="1.5" height="48.998"/>
		</g>
		<g>
			<polygon fill="#B492FF" points="306.78,506.552 294.057,493.93 233.045,433.323 234.103,432.259 295.114,492.866 
				307.837,505.487 			"/>
		</g>
		<g>
			<path fill="#B492FF" d="M60.689,262.174l-11.339-11.25c-19.157-19.663-35.426-41.843-48.362-65.932l1.321-0.709
				c12.871,23.966,29.056,46.032,48.106,65.586l11.33,11.24L60.689,262.174z"/>
		</g>
		<g>
			<path fill="#B492FF" d="M397.417,320.403l-1.057-1.064l64.926-64.469c19.959-19.522,36.975-41.726,50.579-65.998l1.309,0.733
				c-13.674,24.397-30.778,46.715-50.835,66.333L397.417,320.403z"/>
		</g>
		<g>
			<path fill="#B492FF" d="M513.726,516.75c-13.884-25.561-31.5-48.874-52.358-69.291l-58.956-58.498l-37.489-37.248l1.058-1.064
				l37.488,37.248l58.951,58.494c20.961,20.518,38.667,43.95,52.624,69.643L513.726,516.75z"/>
		</g>
	</g>
</g>
</svg>
